aac-tactics: 8.20.0-1 <- null
advi: 2.0.0-4 <- null
approx: 5.13-1 <- null
belenios: 3.0+dfsg-2 <- null
ben: 1.9 <- null
botch: 0.24-6 <- null
caml-crush: 1.0.12-1.2 <- null
camljava: 0.4-2 <- null
camlp4: 5.3+1 <- 5.3
coq-bignums: 9.0.0+coq8.20-1 <- null
coq-corn: 8.20.0-1 <- null
coq-deriving: 0.2.1-1 <- null
coq-dpdgraph: 1.0+8.20-1 <- null
coq-elpi: 2.4.0-1 <- null
coq-equations: 1.3.1-8.20-1 <- null
coq-ext-lib: 0.13.0-1 <- null
coq-extructures: 0.5.0-1 <- null
coq-gappa: 1.7.0-1 <- null
coq-hammer: 1.3.2+8.20-1 <- null
coq-hierarchy-builder: 1.8.1-1 <- null
coq-hott: 9.0-1 <- null
coq-interval: 4.11.1-1 <- null
coq-iris: 4.3.0-1 <- null
coq-libhyps: 2.0.8-4 <- null
coq-math-classes: 8.19.0-1 <- null
coq-menhirlib: 20240715+ds-1 <- null
coq-mtac2: 1.4+8.20-1 <- null
coq-quickchick: 2.0.5-1 <- null
coq-record-update: 0.3.4-4 <- null
coq-reduction-effects: 0.1.5-5 <- null
coq-reglang: 1.2.1-4 <- null
coq-relation-algebra: 1.7.11-1 <- null
coq-serapi: 8.20.0+0.20.0-1 <- null
coq-simple-io: 1.10.0-1 <- null
coq-stdpp: 1.11.0-1 <- null
coq-unicoq: 1.6-8.20-1 <- null
coq-unimath: 20240923-2 <- null
coqeal: 2.0.3-1 <- null
coqprime: 8.20.1-1 <- null
coquelicot: 3.4.3-1 <- null
cothreads: 0.10-7 <- null
crowbar: 0.2.1-6 <- null
cryptokit: 1.20.1 <- 1.20
cuyo: 2.1.0-1 <- null
diffoscope: 289 <- null
dochelp: 0.1.8 <- null
flocq: 4.2.1-1 <- null
gd4o: 1.0~alpha5.git20220521.bb52fb2-2 <- null
guestfs-tools: 1.52.2-4 <- null
hivex: 1.3.24-1 <- null
hlins: 0.40-1 <- null
hol-light: 1:3.0.0-2 <- null
kalzium: 4:24.12.2-1 <- null
laby: 0.7.0-2 <- null
lem: 2022-12-10 <- 2022-12
libguestfs: 1:1.54.1-1 <- null
libnbd: 1.22.0-1 <- null
llvm-toolchain-14: 1:14.0.6-20 <- null
llvm-toolchain-17: 1:17.0.6-21 <- null
llvm-toolchain-18: 18.1.8 <- 18
llvm-toolchain-19: 1:19.1.7-1 <- null
mathcomp-algebra-tactics: 1.2.4-1 <- null
mathcomp-analysis: 1.9.0-1 <- null
mathcomp-bigenough: 1.0.2-1 <- null
mathcomp-finmap: 2.1.0-3 <- null
mathcomp-multinomials: 2.3.0-1 <- null
mathcomp-real-closed: 2.0.2-1 <- null
mathcomp-zify: 1.5.0+2.0+8.16-4 <- null
mcl14: 14-137+ocaml-3 <- null
misery: 0.2-1.2 <- null
mlpcap: 0.9-22 <- null
nss-passwords: 0.6-1 <- null
nurpawiki: 1.2.4-4 <- null
ocaml-bitstring: 4.1.1 <- 4.1.0
ocaml-conduit: 7.1.0 <- 7.0.0
ocaml-dbus: 0.29-7 <- null
ocaml-gnuplot: 0.8.3-6 <- null
ocaml-luv: 0.5.14-2 <- null
ocaml-re: 1.12.0+really1.11.0 <- 1.12.0
ocaml-shout: 0.2.7-2 <- null
ocaml-tools: 20120103-13 <- null
ocamlcreal: 0.7-8 <- null
ocamlpam: 1.1-6 <- null
ocp-indent: 1.8.2 <- 1.8.1
opam: 2.3.0-1 <- null
osmocom-analog: 0.0~git20240908.8f91ed1-1 <- null
pagodacf: 0.10-8 <- null
paramcoq: 1.1.3+coq8.20-1 <- null
pdfsandwich: 0.1.7-3 <- null
perl4caml: 0.9.5-8 <- null
polygen: 1.0.6.ds2-25 <- null
pplacer: 1.1~alpha19-8 <- null
scilab: 2024.1.0+dfsg-6 <- null
sks: 1.1.6+git20210302.c3ba6d5a-4.1 <- null
spamoracle: 1.6-2 <- null
supermin: 5.2.2-6 <- null
virt-top: 1.1.1-1 <- null
virt-v2v: 2.6.0-1 <- null
xen: 4.19.1-1 <- null
