0install                      2.18
0install-solver               2.18
ANSITerminal                  0.8.5
afl-persistent                1.4
alcotest                      1.8.0
alsa                          0.3.0
angstrom                      0.16.1
ao                            0.2.4
asn1-combinators              0.3.2
astring                       0.8.5
atd                           2.16.0
backoff                       0.1.1
base                          v0.17.1
base-bigarray                 base
base-bytes                    base
base-domains                  base
base-effects                  base
base-nnp                      base
base-threads                  base
base-unix                     base
base64                        3.5.1
bechamel                      0.5.0
benchmark                     1.7
bibtex2html                   1.99-1
bigarray-compat               1.1.0
bigstringaf                   0.10.0
bin_prot                      v0.17.0
biniou                        1.2.2
bisect_ppx                    2.8.3
bitstring                     4.1.0
bjack                         0.1.6
bos                           0.2.1
bz2                           0.8.0
ca-certs                      1.0.0
cairo2                        0.6.5
calendar                      3.0.0
camlidl                       1.12
camlp-streams                 5.0.1
camlp4                        5.3
camlp5-buildscripts           0.04
camlpdf                       2.8
camlzip                       1.13
camomile                      2.0.0
charInfo_width                2.0.0
cinaps                        v0.15.1
cmdliner                      1.3.0
cohttp                        5.3.0
cohttp-lwt                    5.3.0
cohttp-lwt-jsoo               5.3.0
cohttp-lwt-unix               5.3.0
conduit                       7.0.0
conduit-lwt                   7.0.0
conduit-lwt-unix              7.0.0
conf-alsa                     1
conf-ao                       1
conf-autoconf                 0.2
conf-bash                     1
conf-c++                      1.0
conf-cairo                    1
conf-cmake                    1
conf-dssi                     1
conf-expat                    1
conf-faad                     1
conf-findutils                1
conf-frei0r                   1
conf-fts                      1
conf-gmp                      4
conf-gmp-powm-sec             3
conf-gsl                      2
conf-gstreamer                1
conf-gtk3                     18
conf-gtksourceview3           0+2
conf-jack                     1
conf-jq                       1
conf-ladspa                   1
conf-lame                     1
conf-libbz2                   1
conf-libcurl                  2
conf-libflac                  1
conf-libogg                   1
conf-libopus                  1
conf-libpcre2-8               2
conf-libspeex                 1
conf-libssl                   4
conf-libtheora                1
conf-libvorbis                1
conf-libX11                   1
conf-linux-libc-dev           0
conf-llvm-static              18
conf-m4                       1
conf-mad                      2
conf-mariadb                  2
conf-ncurses                  1
conf-npm                      1
conf-pkg-config               4
conf-portaudio                1
conf-postgresql               2
conf-pulseaudio               1
conf-samplerate               1
conf-shine                    1
conf-soundtouch               1
conf-sqlite3                  1
conf-taglib                   1
conf-tcl                      1
conf-tk                       1
conf-which                    1
conf-zlib                     1
containers                    3.15
coq                           8.20.1
coq-core                      8.20.1
coq-stdlib                    8.20.1
coqide-server                 8.20.1
cppo                          1.8.0
cpu                           2.0.0
crowbar                       0.2.1
crunch                        4.0.0
cry                           1.0.3
cryptokit                     1.20
csexp                         1.5.2
cstruct                       6.2.0
csv                           2.4
ctypes                        0.23.0
cudf                          0.10
curses                        1.0.11
digestif                      1.2.0
domain-local-await            1.0.1
domain-name                   0.4.1
domain_shims                  0.1.0
dscheck                       0.5.0
dssi                          0.1.5
dtools                        0.4.5
dune                          3.17.2
dune-build-info               3.17.2
dune-configurator             3.17.2
dune-private-libs             3.17.2
dune-site                     3.17.2
duppy                         0.9.5
duration                      0.2.1
dyn                           3.17.2
easy-format                   1.3.4
either                        1.0.0
eqaf                          0.10
extlib                        1.8.0
extunix                       0.4.3
faad                          0.5.1
fieldslib                     v0.17.0
fileutils                     0.6.6
fix                           20230505
flac                          1.0.0
fmt                           0.9.0
fpath                         0.7.3
frei0r                        0.1.2
gavl                          0.1.6
gen                           1.1
getopt                        20230213
gmap                          0.3.0
graphics                      5.1.2
gsl                           1.25.1
gstreamer                     0.3.1
headache                      1.08
hevea                         2.36
hex                           1.5.0
hmap                          0.8.1
inotify                       2.6
integers                      0.7.0
ipaddr                        5.6.0
ipaddr-cstruct                5.6.0
ipaddr-sexp                   5.6.0
iter                          1.9
jane-street-headers           v0.17.0
js_of_ocaml                   5.9.1
js_of_ocaml-compiler          5.9.1
js_of_ocaml-lwt               5.9.1
js_of_ocaml-ocamlbuild        5.0
js_of_ocaml-ppx               5.9.1
js_of_ocaml-ppx_deriving_json 5.9.1
js_of_ocaml-toplevel          5.9.1
js_of_ocaml-tyxml             5.9.1
jsonm                         1.0.2
jst-config                    v0.17.0
kdf                           1.0.0
lablgtk3                      3.1.5
lablgtk3-sourceview3          3.1.5
labltk                        8.06.15
ladspa                        0.2.2
lambda-term                   3.3.2
lame                          0.3.7
lastfm                        0.3.4
lem                           2022-12-10
linenoise                     1.5.1
linksem                       0.8
liquidsoap                    2.3.1
liquidsoap-lang               2.3.1
llvm                          18-static
logs                          0.7.0
lwt                           5.9.0
lwt_log                       1.1.2
lwt_ppx                       5.8.0
lwt_react                     1.2.0
lwt_ssl                       1.2.0
macaddr                       5.6.0
mad                           0.5.3
magic-mime                    1.3.1
markup                        1.0.3
mccs                          1.1+19
mdx                           2.5.0
mem_usage                     0.1.2
menhir                        20240715
menhirCST                     20240715
menhirLib                     20240715
menhirSdk                     20240715
metadata                      0.3.0
mew                           0.1.0
mew_vi                        0.5.0
mirage-clock                  4.2.0
mirage-clock-unix             4.2.0
mirage-crypto                 2.0.0
mirage-crypto-ec              2.0.0
mirage-crypto-pk              2.0.0
mirage-crypto-rng             2.0.0
mirage-kv                     6.1.1
mirage-kv-mem                 4.0.0
mirage-ptime                  5.0.0
mm                            0.8.6
mmap                          1.2.0
monolith                      20241126
morbig                        0.11.0
mtime                         2.1.0
multicore-bench               0.1.7
multicore-magic               2.3.1
multicore-magic-dscheck       2.3.1
mysql                         1.2.4
not-ocamlfind                 0.13
num                           1.5-1
obuild                        0.1.11
obus                          1.2.5
ocaml                         5.3.0
ocaml-base-compiler           5.3.0
ocaml-compiler                5.3.0
ocaml-compiler-libs           v0.17.0
ocaml-config                  3
ocaml-expat                   1.3.0
ocaml-options-vanilla         1
ocaml-syntax-shims            1.0.0
ocaml-version                 3.7.3
ocaml_intrinsics_kernel       v0.17.1
ocamlbuild                    0.16.1
ocamlfind                     1.9.8
ocamlformat                   0.27.0
ocamlformat-lib               0.27.0
ocamlformat-rpc-lib           0.27.0
ocamlgraph                    2.1.0
ocamlwc                       0.3
ocp-indent                    1.8.1
ocplib-endian                 1.2
ocsigenserver                 6.0.0
ocsipersist                   2.0.0
ocsipersist-lib               2.0.0
octavius                      1.2.2
ocurl                         0.9.2
odoc                          2.4.4
odoc-parser                   2.4.4
ogg                           1.0.0
ohex                          0.2.0
omake                         0.10.7
omd                           2.0.0~alpha4
opam-0install-cudf            0.5.0
opam-file-format              2.1.6
optint                        0.3.0
opus                          1.0.0
ordering                      3.17.2
oseq                          0.5.1
ott                           0.34
ounit                         2.2.7
ounit2                        2.2.7
parany                        14.0.1
parmap                        1.2.5
parsexp                       v0.17.0
pbkdf                         2.0.0
pcre2                         8.0.3
pgocaml                       4.4.0
portaudio                     0.2.3
postgresql                    5.1.3
pp                            2.0.0
pprint                        20230830
ppx_assert                    v0.17.0
ppx_base                      v0.17.0
ppx_bin_prot                  v0.17.0
ppx_bitstring                 4.1.0
ppx_cold                      v0.17.0
ppx_compare                   v0.17.0
ppx_custom_printf             v0.17.0
ppx_derivers                  1.2.1
ppx_deriving                  6.0.3
ppx_deriving_yojson           3.9.1
ppx_enumerate                 v0.17.0
ppx_expect                    v0.17.2
ppx_fields_conv               v0.17.0
ppx_globalize                 v0.17.0
ppx_hash                      v0.17.0
ppx_here                      v0.17.0
ppx_import                    1.11.0
ppx_inline_test               v0.17.0
ppx_js_style                  v0.17.0
ppx_let                       v0.17.0
ppx_optcomp                   v0.17.0
ppx_sexp_conv                 v0.17.0
ppx_stable_witness            v0.17.0
ppx_string                    v0.17.0
ppx_variants_conv             v0.17.0
ppx_yojson_conv               v0.17.0
ppx_yojson_conv_lib           v0.17.0
ppxlib                        0.35.0
ppxlib_jane                   v0.17.2
psmt2-frontend                0.4.0
ptime                         1.2.0
ptmap                         2.0.5
pulseaudio                    0.1.5
qcheck                        0.24
qcheck-alcotest               0.24
qcheck-core                   0.24
qcheck-multicoretests-util    0.7
qcheck-ounit                  0.24
qcheck-stm                    0.7
qtest                         2.11.2
randomconv                    0.2.0
re                            1.12.0
react                         1.2.2
reactiveData                  0.3.1
res                           5.0.2
result                        1.5
rope                          0.6.3
rresult                       0.7.0
samplerate                    0.1.6
saturn                        1.0.0
saturn_lockfree               0.5.0
sedlex                        3.3
seq                           base
sexplib                       v0.17.0
sexplib0                      v0.17.0
sha                           1.15.4
shine                         0.2.3
soundtouch                    0.1.9
spdx_licenses                 1.3.0
speex                         1.0.0
sqlite3                       5.3.0
ssl                           0.7.0
stdio                         v0.17.0
stdlib-random                 1.2.0
stdlib-shims                  0.3.0
stdune                        3.17.2
stringext                     1.6.0
swhid_core                    0.1
syslog                        2.0.2
theora                        1.0.0
thread-table                  1.0.0
time_now                      v0.17.0
tophide                       1.1.0
topkg                         1.0.7
trie                          1.0.0
tsort                         2.1.0
typerep                       v0.17.1
tyxml                         4.6.0
uchar                         0.0.2
unison                        2.53.7
unix-errno                    0.6.2
uri                           4.4.0
uri-sexp                      4.4.0
utop                          2.15.0-1
uucd                          16.0.0
uucp                          16.0.0
uuidm                         0.9.9
uunf                          16.0.0
uuseg                         16.0.0
uutf                          1.0.3
variantslib                   v0.17.0
visitors                      20250212
voaacenc                      0.1.1
vorbis                        1.0.0
websocket                     2.17
why3                          1.8.0
x509                          1.0.5
xdg                           3.17.2
xml-light                     2.5
xmlm                          1.4.0
xmlplaylist                   0.1.5
yojson                        2.2.2
zarith                        1.14
zarith_stubs_js               v0.17.0
zed                           3.2.3
